…
You can then populate your metadata statement with whatever information
is needed to support effective re-use. You can add further headings as
you wish, presuming that they follow the EML standard. The header
‘level’ (i.e. number of `#`) is used to designate the degree of nesting.

Once you are done, import it to R using `read_md()`. It will be stored
as a `tibble`:

``` r
x <- read_md("metadata.md")
x 
```

    #> # A tibble: 29 × 4
    #>    level label                  text                                attributes  
    #>    <dbl> <chr>                  <chr>                               <list>      
    #>  1     1 eml:eml                ""                                  <named list>
    #>  2     2 dataset                 <NA>                               <lgl [1]>   
    #>  3     3 title                   <NA>                               <lgl [1]>   
    #>  4     4 <NA>                   "An awesome dataset"                <NULL>      
    #>  5     2 description             <NA>                               <lgl [1]>   
    #>  6     3 <NA>                   "This data is the best. You should… <NULL>      
    #>  7     3 publicShortDescription  <NA>                               <lgl [1]>   
    #>  8     3 publicDescription       <NA>                               <lgl [1]>   
    #>  9     3 technicalDescription    <NA>                               <lgl [1]>   
    #> 10     3 dataQualityDescription  <NA>                               <lgl [1]>   
    #> # ℹ 19 more rows
…
