…
- `heading_level` (dbl) The heading level of that heading (i.e. number
  of `#`)

- `section` (chr) The heading this section sits within

## Examples

``` r
source_file <- system.file("extdata", 
                           "bionet_metadata.xml",
                           package = "delma")
xml_data <- xml2::read_xml(source_file)
as_lp_tibble(xml_data)
#> # A tibble: 132 × 8
#>    type    label params           text      code   heading heading_level section
#>    <chr>   <chr> <list>           <list>    <list> <chr>           <dbl> <chr>  
#>  1 yaml    NA    <named list [2]> <lgl [1]> <lgl>  NA                 NA NA     
#>  2 heading NA    <lgl [1]>        <chr [1]> <lgl>  eml                 1 eml    
#>  3 block   eml   <named list [2]> <NULL>    <chr>  NA                 NA eml    
#>  4 inline  NA    <lgl [1]>        <chr [2]> <lgl>  NA                 NA eml    
#>  5 heading NA    <lgl [1]>        <chr [1]> <lgl>  dataset             2 dataset
#>  6 inline  NA    <lgl [1]>        <chr [2]> <lgl>  NA                 NA dataset
#>  7 heading NA    <lgl [1]>        <chr [1]> <lgl>  altern…             3 altern…
#>  8 inline  NA    <lgl [1]>        <chr [3]> <lgl>  NA                 NA altern…
#>  9 heading NA    <lgl [1]>        <chr [1]> <lgl>  altern…             3 altern…
#> 10 inline  NA    <lgl [1]>        <chr [3]> <lgl>  NA                 NA altern…
#> # ℹ 122 more rows
```
