Quick start guide • paperbark
…
Reading and writing

As is standard for ALA R packages, read_ functions in
paperbark return a tibble. There are two
variants, one for reading data from markdown:

file <- system.file("example_data", 
                    "README_md_example.md", 
                    package = "paperbark")
read_md(file)

## # A tibble: 29 × 4
##    level label                  text                                attributes  
##    <dbl> <chr>                  <chr>                               <list>      
##  1     1 eml:eml                NA                                  <named list>
##  2     2 dataset                NA                                  <lgl [1]>   
##  3     3 title                  NA                                  <lgl [1]>   
##  4     4 NA                     An awesome dataset                  <NULL>      
##  5     2 description            NA                                  <lgl [1]>   
##  6     3 NA                     This data is the best. You should … <NULL>      
##  7     3 publicShortDescription NA                                  <lgl [1]>   
##  8     3 publicDescription      NA                                  <lgl [1]>   
##  9     3 technicalDescription   NA                                  <lgl [1]>   
## 10     3 dataQualityDescription NA                                  <lgl [1]>   
## # ℹ 19 more rows

And a second for reading data from EML:

read_eml("https://collections.ala.org.au/ws/eml/dr368")

## # A tibble: 85 × 4
##    level label                text                                  attributes  
##    <int> <chr>                <chr>                                 <list>      
##  1     1 Eml                  NA                                    <named list>
##  2     2 Dataset              NA                                    <named list>
##  3     3 Alternate Identifier NA                                    <lgl [1]>   
##  4     4 NA                   0101d74b-afc2-3b0f-817c-dc350d2a6fe4  <lgl [1]>   
##  5     4 NA                   10.15468/14jd9g                       <lgl [1]>   
##  6     4 NA                   0645ccdb-e001-4ab0-9729-51f1755e007e  <lgl [1]>   
##  7     4 NA                   https://collections.ala.org.au/publi… <lgl [1]>   
##  8     3 Title                NA                                    <named list>
##  9     4 NA                   NSW BioNet Atlas                      <lgl [1]>   
## 10     3 Creator              NA                                    <named list>
## # ℹ 75 more rows
…
